{
    "music.nightclub.mix1":{
        "category": "master",
        "sounds": [
            {
                "name": "music/nightclub/mix1",
                "stream":true
            }]
   },"music.nightclub.mix2":{
        "category": "master",
        "sounds": [
            {
                "name": "music/nightclub/mix2",
                "stream":true
            }]
   },"music.nightclub.mix3":{
        "category": "master",
        "sounds": [
            {
                "name": "music/nightclub/mix3",
                "stream":true
            }]
    },"music.nightclub.mix4":{
        "category": "master",
        "sounds": [
            {
                "name": "music/nightclub/mix4",
                "stream":true
            }]
    },"music.nightclub.mix5":{
        "category": "master",
        "sounds": [
            {
                "name": "music/nightclub/mix5",
                "stream":true
            }]
    },"secret.entrance.cave1":{
        "category": "master",
        "sounds": [
            {
                "name": "secret/entrance/cave1",
                "stream":false
            }]
    },"secret.entrance.drip1":{
        "category": "master",
        "sounds": [
            {
                "name": "secret/entrance/drip1",
                "stream":false
            }]
    },"secret.objects.doors.denied":{
        "category": "master",
        "sounds": [
            {
                "name": "secret/objects/doors/denied",
                "stream":false
            }]
    },"secret.objects.doors.door1":{
        "category": "master",
        "sounds": [
            {
                "name": "secret/objects/doors/door1",
                "stream":false
            }]
    },"secret.objects.doors.door2":{
        "category": "master",
        "sounds": [
            {
                "name": "secret/objects/doors/door2",
                "stream":false
            }]
    },"secret.objects.system.startup":{
        "category": "master",
        "sounds": [
            {
                "name": "secret/objects/system/startup",
                "stream":false
            }]
    },"secret.objects.lights.buzz":{
        "category": "master",
        "sounds": [
            {
                "name": "secret/objects/lights/buzz",
                "stream":false
            }]
    },"secret.voice.voice1":{
        "category": "master",
        "sounds": [
            {
                "name": "secret/voice/voice1",
                "stream":false
            }]
    },"secret.objects.system.chime":{
        "category": "master",
        "sounds": [
            {
                "name": "secret/objects/system/chime",
                "stream":false
            }]
    },"secret.objects.system.boot":{
        "category": "master",
        "sounds": [
            {
                "name": "secret/objects/system/boot",
                "stream":false
            }]
    },"secret.objects.doors.entrancedoor":{
        "category": "master",
        "sounds": [
            {
                "name": "secret/objects/doors/entrancedoor",
                "stream":false
            }]
    },"judge.gavel":{
        "category": "master",
        "sounds": [
            {
                "name": "judge/gavel",
                "stream":false
            }]
    },"judge.voice.bologna":{
        "category": "master",
        "sounds": [
            {
                "name": "judge/voice/bologna",
                "stream":false
            }]
    },"judge.voice.donotspeak":{
        "category": "master",
        "sounds": [
            {
                "name": "judge/voice/donotspeak",
                "stream":false
            }]
    },"judge.voice.forgetit":{
        "category": "master",
        "sounds": [
            {
                "name": "judge/voice/forgetit",
                "stream":false
            }]
    },"judge.voice.getalife":{
        "category": "master",
        "sounds": [
            {
                "name": "judge/voice/getalife",
                "stream":false
            }]
    },"judge.voice.good1":{
        "category": "master",
        "sounds": [
            {
                "name": "judge/voice/good1",
                "stream":false
            }]
    },"judge.voice.good2":{
        "category": "master",
        "sounds": [
            {
                "name": "judge/voice/good2",
                "stream":false
            }]
    },"judge.voice.goodafternoon":{
        "category": "master",
        "sounds": [
            {
                "name": "judge/voice/goodafternoon",
                "stream":false
            }]
    },"judge.voice.goodbye":{
        "category": "master",
        "sounds": [
            {
                "name": "judge/voice/goodbye",
                "stream":false
            }]
    },"judge.voice.goodforyou":{
        "category": "master",
        "sounds": [
            {
                "name": "judge/voice/goodforyou",
                "stream":false
            }]
    },"judge.voice.hello1":{
        "category": "master",
        "sounds": [
            {
                "name": "judge/voice/hello1",
                "stream":false
            }]
    },"judge.voice.howoldareyou":{
        "category": "master",
        "sounds": [
            {
                "name": "judge/voice/howoldareyou",
                "stream":false
            }]
    },"judge.voice.idontbelievethat":{
        "category": "master",
        "sounds": [
            {
                "name": "judge/voice/idontbelievethat",
                "stream":false
            }]
    },"judge.voice.imspeaking":{
        "category": "master",
        "sounds": [
            {
                "name": "judge/voice/imspeaking",
                "stream":false
            }]
    },"judge.voice.insult1":{
        "category": "master",
        "sounds": [
            {
                "name": "judge/voice/insult1",
                "stream":false
            }]
    },"judge.voice.isthatcorrect":{
        "category": "master",
        "sounds": [
            {
                "name": "judge/voice/isthatcorrect",
                "stream":false
            }]
    },"judge.voice.iwantyoutoanswermyquestion":{
        "category": "master",
        "sounds": [
            {
                "name": "judge/voice/iwantyoutoanswermyquestion",
                "stream":false
            }]
    },"judge.voice.jail1":{
        "category": "master",
        "sounds": [
            {
                "name": "judge/voice/jail1",
                "stream":false
            }]
    },"judge.voice.jail2":{
        "category": "master",
        "sounds": [
            {
                "name": "judge/voice/jail2",
                "stream":false
            }]
    },"judge.voice.justanswerthisquestion":{
        "category": "master",
        "sounds": [
            {
                "name": "judge/voice/justanswerthisquestion",
                "stream":false
            }]
    },"judge.voice.meanperson":{
        "category": "master",
        "sounds": [
            {
                "name": "judge/voice/meanperson",
                "stream":false
            }]
    },"judge.voice.medicaltreatment":{
        "category": "master",
        "sounds": [
            {
                "name": "judge/voice/medicaltreatment",
                "stream":false
            }]
    },"judge.voice.moron":{
        "category": "master",
        "sounds": [
            {
                "name": "judge/voice/moron",
                "stream":false
            }]
    },"judge.voice.name1":{
        "category": "master",
        "sounds": [
            {
                "name": "judge/voice/name1",
                "stream":false
            }]
    },"judge.voice.name2":{
        "category": "master",
        "sounds": [
            {
                "name": "judge/voice/name2",
                "stream":false
            }]
    },"judge.voice.no":{
        "category": "master",
        "sounds": [
            {
                "name": "judge/voice/no",
                "stream":false
            }]
    },"judge.voice.noexuse":{
        "category": "master",
        "sounds": [
            {
                "name": "judge/voice/noexuse",
                "stream":false
            }]
    },"judge.voice.nonono":{
        "category": "master",
        "sounds": [
            {
                "name": "judge/voice/nonono",
                "stream":false
            }]
    },"judge.voice.nosmart":{
        "category": "master",
        "sounds": [
            {
                "name": "judge/voice/nosmart",
                "stream":false
            }]
    },"judge.voice.ofcource":{
        "category": "master",
        "sounds": [
            {
                "name": "judge/voice/ofcource",
                "stream":false
            }]
    },"judge.voice.okay":{
        "category": "master",
        "sounds": [
            {
                "name": "judge/voice/okay",
                "stream":false
            }]
    },"judge.voice.onepersonatatime":{
        "category": "master",
        "sounds": [
            {
                "name": "judge/voice/onepersonatatime",
                "stream":false
            }]
    },"judge.voice.outrageous":{
        "category": "master",
        "sounds": [
            {
                "name": "judge/voice/outrageous",
                "stream":false
            }]
    },"judge.voice.right1":{
        "category": "master",
        "sounds": [
            {
                "name": "judge/voice/right1",
                "stream":false
            }]
    },"judge.voice.right2":{
        "category": "master",
        "sounds": [
            {
                "name": "judge/voice/right2",
                "stream":false
            }]
    },"judge.voice.sitdown":{
        "category": "master",
        "sounds": [
            {
                "name": "judge/voice/sitdown",
                "stream":false
            }]
    },"judge.voice.stillnoanswer":{
        "category": "master",
        "sounds": [
            {
                "name": "judge/voice/stillnoanswer",
                "stream":false
            }]
    },"judge.voice.what":{
        "category": "master",
        "sounds": [
            {
                "name": "judge/voice/what",
                "stream":false
            }]
    },"judge.voice.when":{
        "category": "master",
        "sounds": [
            {
                "name": "judge/voice/when",
                "stream":false
            }]
    },"judge.voice.where":{
        "category": "master",
        "sounds": [
            {
                "name": "judge/voice/where",
                "stream":false
            }]
    },"judge.voice.work":{
        "category": "master",
        "sounds": [
            {
                "name": "judge/voice/work",
                "stream":false
            }]
    },"judge.voice.yes1":{
        "category": "master",
        "sounds": [
            {
                "name": "judge/voice/yes1",
                "stream":false
            }]
    },"judge.voice.yes2":{
        "category": "master",
        "sounds": [
            {
                "name": "judge/voice/yes2",
                "stream":false
            }]
    },"music.spawn_world.music":{
        "category": "master",
        "sounds": [
            {
                "name": "music/spawn_world/music",
                "stream":true
            }]
    },"special.fireworks.fireworks1":{
        "category": "master",
        "sounds": [
            {
                "name": "special/fireworks/fireworks1",
                "stream":true
            }]
    },"special.fireworks.burst1":{
        "category": "master",
        "sounds": [
            {
                "name": "special/fireworks/burst1",
                "stream":true
            }]
    },"ambient.wind.wind":{
        "category": "master",
        "sounds": [
            {
                "name": "ambient/wind/wind",
                "stream":true
            }]
    },"ambient.spawn_portal.ambientportal":{
        "category": "master",
        "sounds": [
            {
                "name": "ambient/spawn_portal/ambientportal",
                "stream":false
            }]
    },"music.fun.dance":{
        "category": "master",
        "sounds": [
            {
                "name": "music/fun/dance",
                "stream":true
            }]
    },"music.fun.flea":{
        "category": "master",
        "sounds": [
            {
                "name": "music/fun/flea",
                "stream":true
            }]
    },"music.fun.portal1":{
        "category": "master",
        "sounds": [
            {
                "name": "music/fun/portal1",
                "stream":true
            }]
    },"special.clock.tick":{
        "category": "master",
        "sounds": [
            {
                "name": "special/clock/tick",
                "stream":false
            }]
    },"special.clock.tock":{
        "category": "master",
        "sounds": [
            {
                "name": "special/clock/tock",
                "stream":false
            }]
    },"special.clock.chime":{
        "category": "master",
        "sounds": [
            {
                "name": "special/clock/chime",
                "stream":true
            }]
    },"special.8bit.coin1":{
        "category": "master",
        "sounds": [
            {
                "name": "special/8bit/coin1",
                "stream":false
            }]
    },"special.8bit.coin2":{
        "category": "master",
        "sounds": [
            {
                "name": "special/8bit/coin2",
                "stream":false
            }]
    },"special.8bit.pong":{
        "category": "master",
        "sounds": [
            {
                "name": "special/8bit/pong",
                "stream":false
            }]
    },"special.8bit.rush":{
        "category": "master",
        "sounds": [
            {
                "name": "special/8bit/rush",
                "stream":false
            }]
    },"special.8bit.song1":{
        "category": "master",
        "sounds": [
            {
                "name": "special/8bit/song1",
                "stream":true
            }]
    },"special.8bit.song2":{
        "category": "master",
        "sounds": [
            {
                "name": "special/8bit/song2",
                "stream":true
            }]
    },"castle.people1":{
        "category": "master",
        "sounds": [
            {
                "name": "castle/people1",
                "stream":false
            }]
    },"night.night":{
        "category": "master",
        "sounds": [
            {
                "name": "night/night",
                "stream":true
            }]
    },"mobarena.song1":{
        "category": "master",
        "sounds": [
            {
                "name": "mobarena/song1",
                "stream":true
            }]
    },"special.soda.soda":{
        "category": "master",
        "sounds": [
            {
                "name": "special/soda/soda",
                "stream":false
            }]
    },"ambient.spawn_portal.woosh":{
        "category": "master",
        "sounds": [
            {
                "name": "ambient/spawn_portal/woosh",
                "stream":false
            }]
    },"secret.entrance.elevator":{
        "category": "master",
        "sounds": [
            {
                "name": "secret/entrance/elevator",
                "stream":true
            }]
    },"alert.alert1":{
        "category": "master",
        "sounds": [
            {
                "name": "alert/alert1",
                "stream":false
            }]
    },"alert.alert2":{
        "category": "master",
        "sounds": [
            {
                "name": "alert/alert2",
                "stream":false
            }]
    },"alert.alert3":{
        "category": "master",
        "sounds": [
            {
                "name": "alert/alert3",
                "stream":false
            }]
    },"music.ambient.1":{
        "category": "master",
        "sounds": [
            {
                "name": "music/ambient/1",
                "stream":true
            }]
    },"music.ambient.2":{
        "category": "master",
        "sounds": [
            {
                "name": "music/ambient/2",
                "stream":true
            }]
    },"music.ambient.3":{
        "category": "master",
        "sounds": [
            {
                "name": "music/ambient/3",
                "stream":true
            }]
    },"music.ambient.4":{
        "category": "master",
        "sounds": [
            {
                "name": "music/ambient/4",
                "stream":true
            }]
    },"music.ambient.5":{
        "category": "master",
        "sounds": [
            {
                "name": "music/ambient/5",
                "stream":true
            }]
    },"music.ambient.6":{
        "category": "master",
        "sounds": [
            {
                "name": "music/ambient/6",
                "stream":true
            }]
    },"music.ambient.7":{
        "category": "master",
        "sounds": [
            {
                "name": "music/ambient/7",
                "stream":true
            }]
    },"cash.cash1":{
        "category": "master",
        "sounds": [
            {
                "name": "cash/cash1",
                "stream":false
            }]
    },"cash.cash2":{
        "category": "master",
        "sounds": [
            {
                "name": "cash/cash2",
                "stream":false
            }]
    },"cash.cash3":{
        "category": "master",
        "sounds": [
            {
                "name": "cash/cash3",
                "stream":false
            }]
    },"cash.cashbeep1":{
        "category": "master",
        "sounds": [
            {
                "name": "cash/cashbeep1",
                "stream":false
            }]
    },"cash.cashbeep2":{
        "category": "master",
        "sounds": [
            {
                "name": "cash/cashbeep2",
                "stream":false
            }]
    },"ambient.shops.grocery.store1":{
        "category": "record",
        "sounds": [
            {
                "name": "ambient/shops/grocery/store1",
                "stream":false
            }]
    }
	
}